<?xml version="1.0" encoding="UTF-8" standalone="no"?>
<!-- Created with Inkscape (http://www.inkscape.org/) -->

<svg
   xmlns:dc="http://purl.org/dc/elements/1.1/"
   xmlns:cc="http://creativecommons.org/ns#"
   xmlns:rdf="http://www.w3.org/1999/02/22-rdf-syntax-ns#"
   xmlns:svg="http://www.w3.org/2000/svg"
   xmlns="http://www.w3.org/2000/svg"
   xmlns:sodipodi="http://sodipodi.sourceforge.net/DTD/sodipodi-0.dtd"
   xmlns:inkscape="http://www.inkscape.org/namespaces/inkscape"
   width="63.414673"
   height="59.933193"
   viewBox="0 0 16.778465 15.857324"
   version="1.1"
   id="svg8"
   inkscape:version="0.92.5 (2060ec1f9f, 2020-04-08)"
   sodipodi:docname="litemanual.svg">
  <defs
     id="defs2">
    <inkscape:perspective
       sodipodi:type="inkscape:persp3d"
       inkscape:vp_x="-16.489243 : 31.919418 : 1"
       inkscape:vp_y="1803.7188 : 7.0882045 : 0"
       inkscape:vp_z="-15.572678 : -201.31703 : 1"
       inkscape:persp3d-origin="-56.754921 : -84.858845 : 1"
       id="perspective3830" />
    <inkscape:perspective
       id="perspective3830-9"
       inkscape:persp3d-origin="-56.754921 : -84.858845 : 1"
       inkscape:vp_z="-15.572678 : -201.31703 : 1"
       inkscape:vp_y="1803.7188 : 7.0882045 : 0"
       inkscape:vp_x="-16.489243 : 31.919418 : 1"
       sodipodi:type="inkscape:persp3d" />
    <inkscape:perspective
       id="perspective3830-3"
       inkscape:persp3d-origin="-56.754921 : -84.858845 : 1"
       inkscape:vp_z="-15.572678 : -201.31703 : 1"
       inkscape:vp_y="1803.7188 : 7.0882045 : 0"
       inkscape:vp_x="-16.489243 : 31.919418 : 1"
       sodipodi:type="inkscape:persp3d" />
    <inkscape:perspective
       sodipodi:type="inkscape:persp3d"
       inkscape:vp_x="-16.489243 : 31.919418 : 1"
       inkscape:vp_y="1803.7188 : 7.0882045 : 0"
       inkscape:vp_z="-15.572678 : -201.31703 : 1"
       inkscape:persp3d-origin="-56.754921 : -84.858845 : 1"
       id="perspective3830-9-7" />
    <inkscape:perspective
       id="perspective3830-93"
       inkscape:persp3d-origin="-56.754921 : -84.858845 : 1"
       inkscape:vp_z="-15.572678 : -201.31703 : 1"
       inkscape:vp_y="1803.7188 : 7.0882045 : 0"
       inkscape:vp_x="-16.489243 : 31.919418 : 1"
       sodipodi:type="inkscape:persp3d" />
    <inkscape:perspective
       sodipodi:type="inkscape:persp3d"
       inkscape:vp_x="-16.489243 : 31.919418 : 1"
       inkscape:vp_y="1803.7188 : 7.0882045 : 0"
       inkscape:vp_z="-15.572678 : -201.31703 : 1"
       inkscape:persp3d-origin="-56.754921 : -84.858845 : 1"
       id="perspective3830-9-1" />
    <inkscape:perspective
       id="perspective3830-5"
       inkscape:persp3d-origin="-56.754921 : -84.858845 : 1"
       inkscape:vp_z="-15.572678 : -201.31703 : 1"
       inkscape:vp_y="1803.7188 : 7.0882045 : 0"
       inkscape:vp_x="-16.489243 : 31.919418 : 1"
       sodipodi:type="inkscape:persp3d" />
    <inkscape:perspective
       sodipodi:type="inkscape:persp3d"
       inkscape:vp_x="-16.489243 : 31.919418 : 1"
       inkscape:vp_y="1803.7188 : 7.0882045 : 0"
       inkscape:vp_z="-15.572678 : -201.31703 : 1"
       inkscape:persp3d-origin="-56.754921 : -84.858845 : 1"
       id="perspective3830-9-0" />
    <inkscape:perspective
       id="perspective3830-32"
       inkscape:persp3d-origin="-56.754921 : -84.858845 : 1"
       inkscape:vp_z="-15.572678 : -201.31703 : 1"
       inkscape:vp_y="1803.7188 : 7.0882045 : 0"
       inkscape:vp_x="-16.489243 : 31.919418 : 1"
       sodipodi:type="inkscape:persp3d" />
    <inkscape:perspective
       sodipodi:type="inkscape:persp3d"
       inkscape:vp_x="-16.489243 : 31.919418 : 1"
       inkscape:vp_y="1803.7188 : 7.0882045 : 0"
       inkscape:vp_z="-15.572678 : -201.31703 : 1"
       inkscape:persp3d-origin="-56.754921 : -84.858845 : 1"
       id="perspective3830-9-06" />
    <inkscape:perspective
       id="perspective3830-2"
       inkscape:persp3d-origin="-56.754919 : -84.858847 : 1"
       inkscape:vp_z="-15.572677 : -201.31704 : 1"
       inkscape:vp_y="1803.7187 : 7.0882047 : 0"
       inkscape:vp_x="-16.489242 : 31.919419 : 1"
       sodipodi:type="inkscape:persp3d" />
    <inkscape:perspective
       sodipodi:type="inkscape:persp3d"
       inkscape:vp_x="-16.489242 : 31.919419 : 1"
       inkscape:vp_y="1803.7187 : 7.0882047 : 0"
       inkscape:vp_z="-15.572677 : -201.31704 : 1"
       inkscape:persp3d-origin="-56.754919 : -84.858847 : 1"
       id="perspective3830-9-9" />
    <inkscape:perspective
       sodipodi:type="inkscape:persp3d"
       inkscape:vp_x="-16.489242 : 31.919419 : 1"
       inkscape:vp_y="1803.7187 : 7.0882047 : 0"
       inkscape:vp_z="-15.572677 : -201.31704 : 1"
       inkscape:persp3d-origin="-56.754919 : -84.858847 : 1"
       id="perspective3830-3-1" />
    <inkscape:perspective
       id="perspective3830-9-7-2"
       inkscape:persp3d-origin="-56.754919 : -84.858847 : 1"
       inkscape:vp_z="-15.572677 : -201.31704 : 1"
       inkscape:vp_y="1803.7187 : 7.0882047 : 0"
       inkscape:vp_x="-16.489242 : 31.919419 : 1"
       sodipodi:type="inkscape:persp3d" />
    <inkscape:perspective
       sodipodi:type="inkscape:persp3d"
       inkscape:vp_x="-16.489242 : 31.919419 : 1"
       inkscape:vp_y="1803.7187 : 7.0882047 : 0"
       inkscape:vp_z="-15.572677 : -201.31704 : 1"
       inkscape:persp3d-origin="-56.754919 : -84.858847 : 1"
       id="perspective3830-93-7" />
    <inkscape:perspective
       id="perspective3830-9-1-0"
       inkscape:persp3d-origin="-56.754919 : -84.858847 : 1"
       inkscape:vp_z="-15.572677 : -201.31704 : 1"
       inkscape:vp_y="1803.7187 : 7.0882047 : 0"
       inkscape:vp_x="-16.489242 : 31.919419 : 1"
       sodipodi:type="inkscape:persp3d" />
    <inkscape:perspective
       sodipodi:type="inkscape:persp3d"
       inkscape:vp_x="-16.489242 : 31.919419 : 1"
       inkscape:vp_y="1803.7187 : 7.0882047 : 0"
       inkscape:vp_z="-15.572677 : -201.31704 : 1"
       inkscape:persp3d-origin="-56.754919 : -84.858847 : 1"
       id="perspective3830-5-9" />
    <inkscape:perspective
       id="perspective3830-9-0-3"
       inkscape:persp3d-origin="-56.754919 : -84.858847 : 1"
       inkscape:vp_z="-15.572677 : -201.31704 : 1"
       inkscape:vp_y="1803.7187 : 7.0882047 : 0"
       inkscape:vp_x="-16.489242 : 31.919419 : 1"
       sodipodi:type="inkscape:persp3d" />
    <inkscape:perspective
       sodipodi:type="inkscape:persp3d"
       inkscape:vp_x="-16.489242 : 31.919419 : 1"
       inkscape:vp_y="1803.7187 : 7.0882047 : 0"
       inkscape:vp_z="-15.572677 : -201.31704 : 1"
       inkscape:persp3d-origin="-56.754919 : -84.858847 : 1"
       id="perspective3830-32-6" />
    <inkscape:perspective
       id="perspective3830-9-06-0"
       inkscape:persp3d-origin="-56.754919 : -84.858847 : 1"
       inkscape:vp_z="-15.572677 : -201.31704 : 1"
       inkscape:vp_y="1803.7187 : 7.0882047 : 0"
       inkscape:vp_x="-16.489242 : 31.919419 : 1"
       sodipodi:type="inkscape:persp3d" />
    <inkscape:perspective
       id="perspective3830-7"
       inkscape:persp3d-origin="-56.754921 : -84.858843 : 1"
       inkscape:vp_z="-15.572678 : -201.31702 : 1"
       inkscape:vp_y="1803.7188 : 7.0882043 : 0"
       inkscape:vp_x="-16.489243 : 31.919417 : 1"
       sodipodi:type="inkscape:persp3d" />
    <inkscape:perspective
       sodipodi:type="inkscape:persp3d"
       inkscape:vp_x="-16.489243 : 31.919417 : 1"
       inkscape:vp_y="1803.7188 : 7.0882043 : 0"
       inkscape:vp_z="-15.572678 : -201.31702 : 1"
       inkscape:persp3d-origin="-56.754921 : -84.858843 : 1"
       id="perspective3830-9-92" />
    <inkscape:perspective
       sodipodi:type="inkscape:persp3d"
       inkscape:vp_x="-16.489243 : 31.919417 : 1"
       inkscape:vp_y="1803.7188 : 7.0882043 : 0"
       inkscape:vp_z="-15.572678 : -201.31702 : 1"
       inkscape:persp3d-origin="-56.754921 : -84.858843 : 1"
       id="perspective3830-3-0" />
    <inkscape:perspective
       id="perspective3830-9-7-23"
       inkscape:persp3d-origin="-56.754921 : -84.858843 : 1"
       inkscape:vp_z="-15.572678 : -201.31702 : 1"
       inkscape:vp_y="1803.7188 : 7.0882043 : 0"
       inkscape:vp_x="-16.489243 : 31.919417 : 1"
       sodipodi:type="inkscape:persp3d" />
    <inkscape:perspective
       sodipodi:type="inkscape:persp3d"
       inkscape:vp_x="-16.489243 : 31.919417 : 1"
       inkscape:vp_y="1803.7188 : 7.0882043 : 0"
       inkscape:vp_z="-15.572678 : -201.31702 : 1"
       inkscape:persp3d-origin="-56.754921 : -84.858843 : 1"
       id="perspective3830-93-75" />
    <inkscape:perspective
       id="perspective3830-9-1-9"
       inkscape:persp3d-origin="-56.754921 : -84.858843 : 1"
       inkscape:vp_z="-15.572678 : -201.31702 : 1"
       inkscape:vp_y="1803.7188 : 7.0882043 : 0"
       inkscape:vp_x="-16.489243 : 31.919417 : 1"
       sodipodi:type="inkscape:persp3d" />
    <inkscape:perspective
       sodipodi:type="inkscape:persp3d"
       inkscape:vp_x="-16.489243 : 31.919417 : 1"
       inkscape:vp_y="1803.7188 : 7.0882043 : 0"
       inkscape:vp_z="-15.572678 : -201.31702 : 1"
       inkscape:persp3d-origin="-56.754921 : -84.858843 : 1"
       id="perspective3830-5-2" />
    <inkscape:perspective
       id="perspective3830-9-0-2"
       inkscape:persp3d-origin="-56.754921 : -84.858843 : 1"
       inkscape:vp_z="-15.572678 : -201.31702 : 1"
       inkscape:vp_y="1803.7188 : 7.0882043 : 0"
       inkscape:vp_x="-16.489243 : 31.919417 : 1"
       sodipodi:type="inkscape:persp3d" />
    <inkscape:perspective
       sodipodi:type="inkscape:persp3d"
       inkscape:vp_x="-16.489243 : 31.919417 : 1"
       inkscape:vp_y="1803.7188 : 7.0882043 : 0"
       inkscape:vp_z="-15.572678 : -201.31702 : 1"
       inkscape:persp3d-origin="-56.754921 : -84.858843 : 1"
       id="perspective3830-32-8" />
    <inkscape:perspective
       id="perspective3830-9-06-9"
       inkscape:persp3d-origin="-56.754921 : -84.858843 : 1"
       inkscape:vp_z="-15.572678 : -201.31702 : 1"
       inkscape:vp_y="1803.7188 : 7.0882043 : 0"
       inkscape:vp_x="-16.489243 : 31.919417 : 1"
       sodipodi:type="inkscape:persp3d" />
    <inkscape:perspective
       sodipodi:type="inkscape:persp3d"
       inkscape:vp_x="-16.489242 : 31.919418 : 1"
       inkscape:vp_y="1803.7187 : 7.0882045 : 0"
       inkscape:vp_z="-15.572677 : -201.31703 : 1"
       inkscape:persp3d-origin="-56.754919 : -84.858845 : 1"
       id="perspective3830-2-7" />
    <inkscape:perspective
       id="perspective3830-9-9-3"
       inkscape:persp3d-origin="-56.754919 : -84.858845 : 1"
       inkscape:vp_z="-15.572677 : -201.31703 : 1"
       inkscape:vp_y="1803.7187 : 7.0882045 : 0"
       inkscape:vp_x="-16.489242 : 31.919418 : 1"
       sodipodi:type="inkscape:persp3d" />
    <inkscape:perspective
       id="perspective3830-3-1-6"
       inkscape:persp3d-origin="-56.754919 : -84.858845 : 1"
       inkscape:vp_z="-15.572677 : -201.31703 : 1"
       inkscape:vp_y="1803.7187 : 7.0882045 : 0"
       inkscape:vp_x="-16.489242 : 31.919418 : 1"
       sodipodi:type="inkscape:persp3d" />
    <inkscape:perspective
       sodipodi:type="inkscape:persp3d"
       inkscape:vp_x="-16.489242 : 31.919418 : 1"
       inkscape:vp_y="1803.7187 : 7.0882045 : 0"
       inkscape:vp_z="-15.572677 : -201.31703 : 1"
       inkscape:persp3d-origin="-56.754919 : -84.858845 : 1"
       id="perspective3830-9-7-2-1" />
    <inkscape:perspective
       id="perspective3830-93-7-2"
       inkscape:persp3d-origin="-56.754919 : -84.858845 : 1"
       inkscape:vp_z="-15.572677 : -201.31703 : 1"
       inkscape:vp_y="1803.7187 : 7.0882045 : 0"
       inkscape:vp_x="-16.489242 : 31.919418 : 1"
       sodipodi:type="inkscape:persp3d" />
    <inkscape:perspective
       sodipodi:type="inkscape:persp3d"
       inkscape:vp_x="-16.489242 : 31.919418 : 1"
       inkscape:vp_y="1803.7187 : 7.0882045 : 0"
       inkscape:vp_z="-15.572677 : -201.31703 : 1"
       inkscape:persp3d-origin="-56.754919 : -84.858845 : 1"
       id="perspective3830-9-1-0-9" />
    <inkscape:perspective
       id="perspective3830-5-9-3"
       inkscape:persp3d-origin="-56.754919 : -84.858845 : 1"
       inkscape:vp_z="-15.572677 : -201.31703 : 1"
       inkscape:vp_y="1803.7187 : 7.0882045 : 0"
       inkscape:vp_x="-16.489242 : 31.919418 : 1"
       sodipodi:type="inkscape:persp3d" />
    <inkscape:perspective
       sodipodi:type="inkscape:persp3d"
       inkscape:vp_x="-16.489242 : 31.919418 : 1"
       inkscape:vp_y="1803.7187 : 7.0882045 : 0"
       inkscape:vp_z="-15.572677 : -201.31703 : 1"
       inkscape:persp3d-origin="-56.754919 : -84.858845 : 1"
       id="perspective3830-9-0-3-1" />
    <inkscape:perspective
       id="perspective3830-32-6-9"
       inkscape:persp3d-origin="-56.754919 : -84.858845 : 1"
       inkscape:vp_z="-15.572677 : -201.31703 : 1"
       inkscape:vp_y="1803.7187 : 7.0882045 : 0"
       inkscape:vp_x="-16.489242 : 31.919418 : 1"
       sodipodi:type="inkscape:persp3d" />
    <inkscape:perspective
       sodipodi:type="inkscape:persp3d"
       inkscape:vp_x="-16.489242 : 31.919418 : 1"
       inkscape:vp_y="1803.7187 : 7.0882045 : 0"
       inkscape:vp_z="-15.572677 : -201.31703 : 1"
       inkscape:persp3d-origin="-56.754919 : -84.858845 : 1"
       id="perspective3830-9-06-0-4" />
    <inkscape:perspective
       id="perspective3830-1"
       inkscape:persp3d-origin="-56.754922 : -84.858844 : 1"
       inkscape:vp_z="-15.572678 : -201.31702 : 1"
       inkscape:vp_y="1803.7188 : 7.0882044 : 0"
       inkscape:vp_x="-16.489243 : 31.919417 : 1"
       sodipodi:type="inkscape:persp3d" />
    <inkscape:perspective
       sodipodi:type="inkscape:persp3d"
       inkscape:vp_x="-16.489243 : 31.919417 : 1"
       inkscape:vp_y="1803.7188 : 7.0882044 : 0"
       inkscape:vp_z="-15.572678 : -201.31702 : 1"
       inkscape:persp3d-origin="-56.754922 : -84.858844 : 1"
       id="perspective3830-9-063" />
    <inkscape:perspective
       sodipodi:type="inkscape:persp3d"
       inkscape:vp_x="-16.489243 : 31.919417 : 1"
       inkscape:vp_y="1803.7188 : 7.0882044 : 0"
       inkscape:vp_z="-15.572678 : -201.31702 : 1"
       inkscape:persp3d-origin="-56.754922 : -84.858844 : 1"
       id="perspective3830-3-2" />
    <inkscape:perspective
       id="perspective3830-9-7-0"
       inkscape:persp3d-origin="-56.754922 : -84.858844 : 1"
       inkscape:vp_z="-15.572678 : -201.31702 : 1"
       inkscape:vp_y="1803.7188 : 7.0882044 : 0"
       inkscape:vp_x="-16.489243 : 31.919417 : 1"
       sodipodi:type="inkscape:persp3d" />
    <inkscape:perspective
       sodipodi:type="inkscape:persp3d"
       inkscape:vp_x="-16.489243 : 31.919417 : 1"
       inkscape:vp_y="1803.7188 : 7.0882044 : 0"
       inkscape:vp_z="-15.572678 : -201.31702 : 1"
       inkscape:persp3d-origin="-56.754922 : -84.858844 : 1"
       id="perspective3830-93-6" />
    <inkscape:perspective
       id="perspective3830-9-1-1"
       inkscape:persp3d-origin="-56.754922 : -84.858844 : 1"
       inkscape:vp_z="-15.572678 : -201.31702 : 1"
       inkscape:vp_y="1803.7188 : 7.0882044 : 0"
       inkscape:vp_x="-16.489243 : 31.919417 : 1"
       sodipodi:type="inkscape:persp3d" />
    <inkscape:perspective
       sodipodi:type="inkscape:persp3d"
       inkscape:vp_x="-16.489243 : 31.919417 : 1"
       inkscape:vp_y="1803.7188 : 7.0882044 : 0"
       inkscape:vp_z="-15.572678 : -201.31702 : 1"
       inkscape:persp3d-origin="-56.754922 : -84.858844 : 1"
       id="perspective3830-5-5" />
    <inkscape:perspective
       id="perspective3830-9-0-5"
       inkscape:persp3d-origin="-56.754922 : -84.858844 : 1"
       inkscape:vp_z="-15.572678 : -201.31702 : 1"
       inkscape:vp_y="1803.7188 : 7.0882044 : 0"
       inkscape:vp_x="-16.489243 : 31.919417 : 1"
       sodipodi:type="inkscape:persp3d" />
    <inkscape:perspective
       sodipodi:type="inkscape:persp3d"
       inkscape:vp_x="-16.489243 : 31.919417 : 1"
       inkscape:vp_y="1803.7188 : 7.0882044 : 0"
       inkscape:vp_z="-15.572678 : -201.31702 : 1"
       inkscape:persp3d-origin="-56.754922 : -84.858844 : 1"
       id="perspective3830-32-4" />
    <inkscape:perspective
       id="perspective3830-9-06-7"
       inkscape:persp3d-origin="-56.754922 : -84.858844 : 1"
       inkscape:vp_z="-15.572678 : -201.31702 : 1"
       inkscape:vp_y="1803.7188 : 7.0882044 : 0"
       inkscape:vp_x="-16.489243 : 31.919417 : 1"
       sodipodi:type="inkscape:persp3d" />
    <inkscape:perspective
       sodipodi:type="inkscape:persp3d"
       inkscape:vp_x="-16.489242 : 31.919418 : 1"
       inkscape:vp_y="1803.7187 : 7.0882046 : 0"
       inkscape:vp_z="-15.572677 : -201.31703 : 1"
       inkscape:persp3d-origin="-56.75492 : -84.858846 : 1"
       id="perspective3830-2-6" />
    <inkscape:perspective
       id="perspective3830-9-9-5"
       inkscape:persp3d-origin="-56.75492 : -84.858846 : 1"
       inkscape:vp_z="-15.572677 : -201.31703 : 1"
       inkscape:vp_y="1803.7187 : 7.0882046 : 0"
       inkscape:vp_x="-16.489242 : 31.919418 : 1"
       sodipodi:type="inkscape:persp3d" />
    <inkscape:perspective
       id="perspective3830-3-1-69"
       inkscape:persp3d-origin="-56.75492 : -84.858846 : 1"
       inkscape:vp_z="-15.572677 : -201.31703 : 1"
       inkscape:vp_y="1803.7187 : 7.0882046 : 0"
       inkscape:vp_x="-16.489242 : 31.919418 : 1"
       sodipodi:type="inkscape:persp3d" />
    <inkscape:perspective
       sodipodi:type="inkscape:persp3d"
       inkscape:vp_x="-16.489242 : 31.919418 : 1"
       inkscape:vp_y="1803.7187 : 7.0882046 : 0"
       inkscape:vp_z="-15.572677 : -201.31703 : 1"
       inkscape:persp3d-origin="-56.75492 : -84.858846 : 1"
       id="perspective3830-9-7-2-3" />
    <inkscape:perspective
       id="perspective3830-93-7-7"
       inkscape:persp3d-origin="-56.75492 : -84.858846 : 1"
       inkscape:vp_z="-15.572677 : -201.31703 : 1"
       inkscape:vp_y="1803.7187 : 7.0882046 : 0"
       inkscape:vp_x="-16.489242 : 31.919418 : 1"
       sodipodi:type="inkscape:persp3d" />
    <inkscape:perspective
       sodipodi:type="inkscape:persp3d"
       inkscape:vp_x="-16.489242 : 31.919418 : 1"
       inkscape:vp_y="1803.7187 : 7.0882046 : 0"
       inkscape:vp_z="-15.572677 : -201.31703 : 1"
       inkscape:persp3d-origin="-56.75492 : -84.858846 : 1"
       id="perspective3830-9-1-0-4" />
    <inkscape:perspective
       id="perspective3830-5-9-5"
       inkscape:persp3d-origin="-56.75492 : -84.858846 : 1"
       inkscape:vp_z="-15.572677 : -201.31703 : 1"
       inkscape:vp_y="1803.7187 : 7.0882046 : 0"
       inkscape:vp_x="-16.489242 : 31.919418 : 1"
       sodipodi:type="inkscape:persp3d" />
    <inkscape:perspective
       sodipodi:type="inkscape:persp3d"
       inkscape:vp_x="-16.489242 : 31.919418 : 1"
       inkscape:vp_y="1803.7187 : 7.0882046 : 0"
       inkscape:vp_z="-15.572677 : -201.31703 : 1"
       inkscape:persp3d-origin="-56.75492 : -84.858846 : 1"
       id="perspective3830-9-0-3-2" />
    <inkscape:perspective
       id="perspective3830-32-6-5"
       inkscape:persp3d-origin="-56.75492 : -84.858846 : 1"
       inkscape:vp_z="-15.572677 : -201.31703 : 1"
       inkscape:vp_y="1803.7187 : 7.0882046 : 0"
       inkscape:vp_x="-16.489242 : 31.919418 : 1"
       sodipodi:type="inkscape:persp3d" />
    <inkscape:perspective
       sodipodi:type="inkscape:persp3d"
       inkscape:vp_x="-16.489242 : 31.919418 : 1"
       inkscape:vp_y="1803.7187 : 7.0882046 : 0"
       inkscape:vp_z="-15.572677 : -201.31703 : 1"
       inkscape:persp3d-origin="-56.75492 : -84.858846 : 1"
       id="perspective3830-9-06-0-47" />
    <inkscape:perspective
       sodipodi:type="inkscape:persp3d"
       inkscape:vp_x="-16.489243 : 31.919418 : 1"
       inkscape:vp_y="1803.7188 : 7.0882046 : 0"
       inkscape:vp_z="-15.572677 : -201.31703 : 1"
       inkscape:persp3d-origin="-56.754921 : -84.858846 : 1"
       id="perspective3830-75" />
    <inkscape:perspective
       id="perspective3830-9-3"
       inkscape:persp3d-origin="-56.754921 : -84.858846 : 1"
       inkscape:vp_z="-15.572677 : -201.31703 : 1"
       inkscape:vp_y="1803.7188 : 7.0882046 : 0"
       inkscape:vp_x="-16.489243 : 31.919418 : 1"
       sodipodi:type="inkscape:persp3d" />
    <inkscape:perspective
       id="perspective3830-3-5"
       inkscape:persp3d-origin="-56.754921 : -84.858846 : 1"
       inkscape:vp_z="-15.572677 : -201.31703 : 1"
       inkscape:vp_y="1803.7188 : 7.0882046 : 0"
       inkscape:vp_x="-16.489243 : 31.919418 : 1"
       sodipodi:type="inkscape:persp3d" />
    <inkscape:perspective
       sodipodi:type="inkscape:persp3d"
       inkscape:vp_x="-16.489243 : 31.919418 : 1"
       inkscape:vp_y="1803.7188 : 7.0882046 : 0"
       inkscape:vp_z="-15.572677 : -201.31703 : 1"
       inkscape:persp3d-origin="-56.754921 : -84.858846 : 1"
       id="perspective3830-9-7-6" />
    <inkscape:perspective
       id="perspective3830-93-2"
       inkscape:persp3d-origin="-56.754921 : -84.858846 : 1"
       inkscape:vp_z="-15.572677 : -201.31703 : 1"
       inkscape:vp_y="1803.7188 : 7.0882046 : 0"
       inkscape:vp_x="-16.489243 : 31.919418 : 1"
       sodipodi:type="inkscape:persp3d" />
    <inkscape:perspective
       sodipodi:type="inkscape:persp3d"
       inkscape:vp_x="-16.489243 : 31.919418 : 1"
       inkscape:vp_y="1803.7188 : 7.0882046 : 0"
       inkscape:vp_z="-15.572677 : -201.31703 : 1"
       inkscape:persp3d-origin="-56.754921 : -84.858846 : 1"
       id="perspective3830-9-1-91" />
    <inkscape:perspective
       id="perspective3830-5-27"
       inkscape:persp3d-origin="-56.754921 : -84.858846 : 1"
       inkscape:vp_z="-15.572677 : -201.31703 : 1"
       inkscape:vp_y="1803.7188 : 7.0882046 : 0"
       inkscape:vp_x="-16.489243 : 31.919418 : 1"
       sodipodi:type="inkscape:persp3d" />
    <inkscape:perspective
       sodipodi:type="inkscape:persp3d"
       inkscape:vp_x="-16.489243 : 31.919418 : 1"
       inkscape:vp_y="1803.7188 : 7.0882046 : 0"
       inkscape:vp_z="-15.572677 : -201.31703 : 1"
       inkscape:persp3d-origin="-56.754921 : -84.858846 : 1"
       id="perspective3830-9-0-0" />
    <inkscape:perspective
       id="perspective3830-32-9"
       inkscape:persp3d-origin="-56.754921 : -84.858846 : 1"
       inkscape:vp_z="-15.572677 : -201.31703 : 1"
       inkscape:vp_y="1803.7188 : 7.0882046 : 0"
       inkscape:vp_x="-16.489243 : 31.919418 : 1"
       sodipodi:type="inkscape:persp3d" />
    <inkscape:perspective
       sodipodi:type="inkscape:persp3d"
       inkscape:vp_x="-16.489243 : 31.919418 : 1"
       inkscape:vp_y="1803.7188 : 7.0882046 : 0"
       inkscape:vp_z="-15.572677 : -201.31703 : 1"
       inkscape:persp3d-origin="-56.754921 : -84.858846 : 1"
       id="perspective3830-9-06-3" />
    <inkscape:perspective
       id="perspective3830-2-60"
       inkscape:persp3d-origin="-56.754919 : -84.858848 : 1"
       inkscape:vp_z="-15.572676 : -201.31704 : 1"
       inkscape:vp_y="1803.7187 : 7.0882048 : 0"
       inkscape:vp_x="-16.489242 : 31.919419 : 1"
       sodipodi:type="inkscape:persp3d" />
    <inkscape:perspective
       sodipodi:type="inkscape:persp3d"
       inkscape:vp_x="-16.489242 : 31.919419 : 1"
       inkscape:vp_y="1803.7187 : 7.0882048 : 0"
       inkscape:vp_z="-15.572676 : -201.31704 : 1"
       inkscape:persp3d-origin="-56.754919 : -84.858848 : 1"
       id="perspective3830-9-9-6" />
    <inkscape:perspective
       sodipodi:type="inkscape:persp3d"
       inkscape:vp_x="-16.489242 : 31.919419 : 1"
       inkscape:vp_y="1803.7187 : 7.0882048 : 0"
       inkscape:vp_z="-15.572676 : -201.31704 : 1"
       inkscape:persp3d-origin="-56.754919 : -84.858848 : 1"
       id="perspective3830-3-1-2" />
    <inkscape:perspective
       id="perspective3830-9-7-2-6"
       inkscape:persp3d-origin="-56.754919 : -84.858848 : 1"
       inkscape:vp_z="-15.572676 : -201.31704 : 1"
       inkscape:vp_y="1803.7187 : 7.0882048 : 0"
       inkscape:vp_x="-16.489242 : 31.919419 : 1"
       sodipodi:type="inkscape:persp3d" />
    <inkscape:perspective
       sodipodi:type="inkscape:persp3d"
       inkscape:vp_x="-16.489242 : 31.919419 : 1"
       inkscape:vp_y="1803.7187 : 7.0882048 : 0"
       inkscape:vp_z="-15.572676 : -201.31704 : 1"
       inkscape:persp3d-origin="-56.754919 : -84.858848 : 1"
       id="perspective3830-93-7-1" />
    <inkscape:perspective
       id="perspective3830-9-1-0-8"
       inkscape:persp3d-origin="-56.754919 : -84.858848 : 1"
       inkscape:vp_z="-15.572676 : -201.31704 : 1"
       inkscape:vp_y="1803.7187 : 7.0882048 : 0"
       inkscape:vp_x="-16.489242 : 31.919419 : 1"
       sodipodi:type="inkscape:persp3d" />
    <inkscape:perspective
       sodipodi:type="inkscape:persp3d"
       inkscape:vp_x="-16.489242 : 31.919419 : 1"
       inkscape:vp_y="1803.7187 : 7.0882048 : 0"
       inkscape:vp_z="-15.572676 : -201.31704 : 1"
       inkscape:persp3d-origin="-56.754919 : -84.858848 : 1"
       id="perspective3830-5-9-7" />
    <inkscape:perspective
       id="perspective3830-9-0-3-9"
       inkscape:persp3d-origin="-56.754919 : -84.858848 : 1"
       inkscape:vp_z="-15.572676 : -201.31704 : 1"
       inkscape:vp_y="1803.7187 : 7.0882048 : 0"
       inkscape:vp_x="-16.489242 : 31.919419 : 1"
       sodipodi:type="inkscape:persp3d" />
    <inkscape:perspective
       sodipodi:type="inkscape:persp3d"
       inkscape:vp_x="-16.489242 : 31.919419 : 1"
       inkscape:vp_y="1803.7187 : 7.0882048 : 0"
       inkscape:vp_z="-15.572676 : -201.31704 : 1"
       inkscape:persp3d-origin="-56.754919 : -84.858848 : 1"
       id="perspective3830-32-6-2" />
    <inkscape:perspective
       id="perspective3830-9-06-0-0"
       inkscape:persp3d-origin="-56.754919 : -84.858848 : 1"
       inkscape:vp_z="-15.572676 : -201.31704 : 1"
       inkscape:vp_y="1803.7187 : 7.0882048 : 0"
       inkscape:vp_x="-16.489242 : 31.919419 : 1"
       sodipodi:type="inkscape:persp3d" />
    <inkscape:perspective
       id="perspective3830-7-2"
       inkscape:persp3d-origin="-56.754921 : -84.858844 : 1"
       inkscape:vp_z="-15.572677 : -201.31702 : 1"
       inkscape:vp_y="1803.7188 : 7.0882044 : 0"
       inkscape:vp_x="-16.489243 : 31.919417 : 1"
       sodipodi:type="inkscape:persp3d" />
    <inkscape:perspective
       sodipodi:type="inkscape:persp3d"
       inkscape:vp_x="-16.489243 : 31.919417 : 1"
       inkscape:vp_y="1803.7188 : 7.0882044 : 0"
       inkscape:vp_z="-15.572677 : -201.31702 : 1"
       inkscape:persp3d-origin="-56.754921 : -84.858844 : 1"
       id="perspective3830-9-92-3" />
    <inkscape:perspective
       sodipodi:type="inkscape:persp3d"
       inkscape:vp_x="-16.489243 : 31.919417 : 1"
       inkscape:vp_y="1803.7188 : 7.0882044 : 0"
       inkscape:vp_z="-15.572677 : -201.31702 : 1"
       inkscape:persp3d-origin="-56.754921 : -84.858844 : 1"
       id="perspective3830-3-0-7" />
    <inkscape:perspective
       id="perspective3830-9-7-23-5"
       inkscape:persp3d-origin="-56.754921 : -84.858844 : 1"
       inkscape:vp_z="-15.572677 : -201.31702 : 1"
       inkscape:vp_y="1803.7188 : 7.0882044 : 0"
       inkscape:vp_x="-16.489243 : 31.919417 : 1"
       sodipodi:type="inkscape:persp3d" />
    <inkscape:perspective
       sodipodi:type="inkscape:persp3d"
       inkscape:vp_x="-16.489243 : 31.919417 : 1"
       inkscape:vp_y="1803.7188 : 7.0882044 : 0"
       inkscape:vp_z="-15.572677 : -201.31702 : 1"
       inkscape:persp3d-origin="-56.754921 : -84.858844 : 1"
       id="perspective3830-93-75-9" />
    <inkscape:perspective
       id="perspective3830-9-1-9-2"
       inkscape:persp3d-origin="-56.754921 : -84.858844 : 1"
       inkscape:vp_z="-15.572677 : -201.31702 : 1"
       inkscape:vp_y="1803.7188 : 7.0882044 : 0"
       inkscape:vp_x="-16.489243 : 31.919417 : 1"
       sodipodi:type="inkscape:persp3d" />
    <inkscape:perspective
       sodipodi:type="inkscape:persp3d"
       inkscape:vp_x="-16.489243 : 31.919417 : 1"
       inkscape:vp_y="1803.7188 : 7.0882044 : 0"
       inkscape:vp_z="-15.572677 : -201.31702 : 1"
       inkscape:persp3d-origin="-56.754921 : -84.858844 : 1"
       id="perspective3830-5-2-2" />
    <inkscape:perspective
       id="perspective3830-9-0-2-8"
       inkscape:persp3d-origin="-56.754921 : -84.858844 : 1"
       inkscape:vp_z="-15.572677 : -201.31702 : 1"
       inkscape:vp_y="1803.7188 : 7.0882044 : 0"
       inkscape:vp_x="-16.489243 : 31.919417 : 1"
       sodipodi:type="inkscape:persp3d" />
    <inkscape:perspective
       sodipodi:type="inkscape:persp3d"
       inkscape:vp_x="-16.489243 : 31.919417 : 1"
       inkscape:vp_y="1803.7188 : 7.0882044 : 0"
       inkscape:vp_z="-15.572677 : -201.31702 : 1"
       inkscape:persp3d-origin="-56.754921 : -84.858844 : 1"
       id="perspective3830-32-8-9" />
    <inkscape:perspective
       id="perspective3830-9-06-9-7"
       inkscape:persp3d-origin="-56.754921 : -84.858844 : 1"
       inkscape:vp_z="-15.572677 : -201.31702 : 1"
       inkscape:vp_y="1803.7188 : 7.0882044 : 0"
       inkscape:vp_x="-16.489243 : 31.919417 : 1"
       sodipodi:type="inkscape:persp3d" />
    <inkscape:perspective
       sodipodi:type="inkscape:persp3d"
       inkscape:vp_x="-16.489242 : 31.919418 : 1"
       inkscape:vp_y="1803.7187 : 7.0882046 : 0"
       inkscape:vp_z="-15.572676 : -201.31703 : 1"
       inkscape:persp3d-origin="-56.754919 : -84.858846 : 1"
       id="perspective3830-2-7-3" />
    <inkscape:perspective
       id="perspective3830-9-9-3-6"
       inkscape:persp3d-origin="-56.754919 : -84.858846 : 1"
       inkscape:vp_z="-15.572676 : -201.31703 : 1"
       inkscape:vp_y="1803.7187 : 7.0882046 : 0"
       inkscape:vp_x="-16.489242 : 31.919418 : 1"
       sodipodi:type="inkscape:persp3d" />
    <inkscape:perspective
       id="perspective3830-3-1-6-1"
       inkscape:persp3d-origin="-56.754919 : -84.858846 : 1"
       inkscape:vp_z="-15.572676 : -201.31703 : 1"
       inkscape:vp_y="1803.7187 : 7.0882046 : 0"
       inkscape:vp_x="-16.489242 : 31.919418 : 1"
       sodipodi:type="inkscape:persp3d" />
    <inkscape:perspective
       sodipodi:type="inkscape:persp3d"
       inkscape:vp_x="-16.489242 : 31.919418 : 1"
       inkscape:vp_y="1803.7187 : 7.0882046 : 0"
       inkscape:vp_z="-15.572676 : -201.31703 : 1"
       inkscape:persp3d-origin="-56.754919 : -84.858846 : 1"
       id="perspective3830-9-7-2-1-2" />
    <inkscape:perspective
       id="perspective3830-93-7-2-9"
       inkscape:persp3d-origin="-56.754919 : -84.858846 : 1"
       inkscape:vp_z="-15.572676 : -201.31703 : 1"
       inkscape:vp_y="1803.7187 : 7.0882046 : 0"
       inkscape:vp_x="-16.489242 : 31.919418 : 1"
       sodipodi:type="inkscape:persp3d" />
    <inkscape:perspective
       sodipodi:type="inkscape:persp3d"
       inkscape:vp_x="-16.489242 : 31.919418 : 1"
       inkscape:vp_y="1803.7187 : 7.0882046 : 0"
       inkscape:vp_z="-15.572676 : -201.31703 : 1"
       inkscape:persp3d-origin="-56.754919 : -84.858846 : 1"
       id="perspective3830-9-1-0-9-3" />
    <inkscape:perspective
       id="perspective3830-5-9-3-1"
       inkscape:persp3d-origin="-56.754919 : -84.858846 : 1"
       inkscape:vp_z="-15.572676 : -201.31703 : 1"
       inkscape:vp_y="1803.7187 : 7.0882046 : 0"
       inkscape:vp_x="-16.489242 : 31.919418 : 1"
       sodipodi:type="inkscape:persp3d" />
    <inkscape:perspective
       sodipodi:type="inkscape:persp3d"
       inkscape:vp_x="-16.489242 : 31.919418 : 1"
       inkscape:vp_y="1803.7187 : 7.0882046 : 0"
       inkscape:vp_z="-15.572676 : -201.31703 : 1"
       inkscape:persp3d-origin="-56.754919 : -84.858846 : 1"
       id="perspective3830-9-0-3-1-9" />
    <inkscape:perspective
       id="perspective3830-32-6-9-4"
       inkscape:persp3d-origin="-56.754919 : -84.858846 : 1"
       inkscape:vp_z="-15.572676 : -201.31703 : 1"
       inkscape:vp_y="1803.7187 : 7.0882046 : 0"
       inkscape:vp_x="-16.489242 : 31.919418 : 1"
       sodipodi:type="inkscape:persp3d" />
    <inkscape:perspective
       sodipodi:type="inkscape:persp3d"
       inkscape:vp_x="-16.489242 : 31.919418 : 1"
       inkscape:vp_y="1803.7187 : 7.0882046 : 0"
       inkscape:vp_z="-15.572676 : -201.31703 : 1"
       inkscape:persp3d-origin="-56.754919 : -84.858846 : 1"
       id="perspective3830-9-06-0-4-7" />
    <inkscape:perspective
       id="perspective3830-1-8"
       inkscape:persp3d-origin="-56.754922 : -84.858845 : 1"
       inkscape:vp_z="-15.572677 : -201.31702 : 1"
       inkscape:vp_y="1803.7188 : 7.0882045 : 0"
       inkscape:vp_x="-16.489243 : 31.919417 : 1"
       sodipodi:type="inkscape:persp3d" />
    <inkscape:perspective
       sodipodi:type="inkscape:persp3d"
       inkscape:vp_x="-16.489243 : 31.919417 : 1"
       inkscape:vp_y="1803.7188 : 7.0882045 : 0"
       inkscape:vp_z="-15.572677 : -201.31702 : 1"
       inkscape:persp3d-origin="-56.754922 : -84.858845 : 1"
       id="perspective3830-9-063-4" />
    <inkscape:perspective
       sodipodi:type="inkscape:persp3d"
       inkscape:vp_x="-16.489243 : 31.919417 : 1"
       inkscape:vp_y="1803.7188 : 7.0882045 : 0"
       inkscape:vp_z="-15.572677 : -201.31702 : 1"
       inkscape:persp3d-origin="-56.754922 : -84.858845 : 1"
       id="perspective3830-3-2-5" />
    <inkscape:perspective
       id="perspective3830-9-7-0-0"
       inkscape:persp3d-origin="-56.754922 : -84.858845 : 1"
       inkscape:vp_z="-15.572677 : -201.31702 : 1"
       inkscape:vp_y="1803.7188 : 7.0882045 : 0"
       inkscape:vp_x="-16.489243 : 31.919417 : 1"
       sodipodi:type="inkscape:persp3d" />
    <inkscape:perspective
       sodipodi:type="inkscape:persp3d"
       inkscape:vp_x="-16.489243 : 31.919417 : 1"
       inkscape:vp_y="1803.7188 : 7.0882045 : 0"
       inkscape:vp_z="-15.572677 : -201.31702 : 1"
       inkscape:persp3d-origin="-56.754922 : -84.858845 : 1"
       id="perspective3830-93-6-3" />
    <inkscape:perspective
       id="perspective3830-9-1-1-6"
       inkscape:persp3d-origin="-56.754922 : -84.858845 : 1"
       inkscape:vp_z="-15.572677 : -201.31702 : 1"
       inkscape:vp_y="1803.7188 : 7.0882045 : 0"
       inkscape:vp_x="-16.489243 : 31.919417 : 1"
       sodipodi:type="inkscape:persp3d" />
    <inkscape:perspective
       sodipodi:type="inkscape:persp3d"
       inkscape:vp_x="-16.489243 : 31.919417 : 1"
       inkscape:vp_y="1803.7188 : 7.0882045 : 0"
       inkscape:vp_z="-15.572677 : -201.31702 : 1"
       inkscape:persp3d-origin="-56.754922 : -84.858845 : 1"
       id="perspective3830-5-5-1" />
    <inkscape:perspective
       id="perspective3830-9-0-5-0"
       inkscape:persp3d-origin="-56.754922 : -84.858845 : 1"
       inkscape:vp_z="-15.572677 : -201.31702 : 1"
       inkscape:vp_y="1803.7188 : 7.0882045 : 0"
       inkscape:vp_x="-16.489243 : 31.919417 : 1"
       sodipodi:type="inkscape:persp3d" />
    <inkscape:perspective
       sodipodi:type="inkscape:persp3d"
       inkscape:vp_x="-16.489243 : 31.919417 : 1"
       inkscape:vp_y="1803.7188 : 7.0882045 : 0"
       inkscape:vp_z="-15.572677 : -201.31702 : 1"
       inkscape:persp3d-origin="-56.754922 : -84.858845 : 1"
       id="perspective3830-32-4-6" />
    <inkscape:perspective
       id="perspective3830-9-06-7-3"
       inkscape:persp3d-origin="-56.754922 : -84.858845 : 1"
       inkscape:vp_z="-15.572677 : -201.31702 : 1"
       inkscape:vp_y="1803.7188 : 7.0882045 : 0"
       inkscape:vp_x="-16.489243 : 31.919417 : 1"
       sodipodi:type="inkscape:persp3d" />
    <inkscape:perspective
       sodipodi:type="inkscape:persp3d"
       inkscape:vp_x="-16.489242 : 31.919418 : 1"
       inkscape:vp_y="1803.7187 : 7.0882047 : 0"
       inkscape:vp_z="-15.572676 : -201.31703 : 1"
       inkscape:persp3d-origin="-56.75492 : -84.858847 : 1"
       id="perspective3830-2-6-2" />
    <inkscape:perspective
       id="perspective3830-9-9-5-0"
       inkscape:persp3d-origin="-56.75492 : -84.858847 : 1"
       inkscape:vp_z="-15.572676 : -201.31703 : 1"
       inkscape:vp_y="1803.7187 : 7.0882047 : 0"
       inkscape:vp_x="-16.489242 : 31.919418 : 1"
       sodipodi:type="inkscape:persp3d" />
    <inkscape:perspective
       id="perspective3830-3-1-69-6"
       inkscape:persp3d-origin="-56.75492 : -84.858847 : 1"
       inkscape:vp_z="-15.572676 : -201.31703 : 1"
       inkscape:vp_y="1803.7187 : 7.0882047 : 0"
       inkscape:vp_x="-16.489242 : 31.919418 : 1"
       sodipodi:type="inkscape:persp3d" />
    <inkscape:perspective
       sodipodi:type="inkscape:persp3d"
       inkscape:vp_x="-16.489242 : 31.919418 : 1"
       inkscape:vp_y="1803.7187 : 7.0882047 : 0"
       inkscape:vp_z="-15.572676 : -201.31703 : 1"
       inkscape:persp3d-origin="-56.75492 : -84.858847 : 1"
       id="perspective3830-9-7-2-3-1" />
    <inkscape:perspective
       id="perspective3830-93-7-7-5"
       inkscape:persp3d-origin="-56.75492 : -84.858847 : 1"
       inkscape:vp_z="-15.572676 : -201.31703 : 1"
       inkscape:vp_y="1803.7187 : 7.0882047 : 0"
       inkscape:vp_x="-16.489242 : 31.919418 : 1"
       sodipodi:type="inkscape:persp3d" />
    <inkscape:perspective
       sodipodi:type="inkscape:persp3d"
       inkscape:vp_x="-16.489242 : 31.919418 : 1"
       inkscape:vp_y="1803.7187 : 7.0882047 : 0"
       inkscape:vp_z="-15.572676 : -201.31703 : 1"
       inkscape:persp3d-origin="-56.75492 : -84.858847 : 1"
       id="perspective3830-9-1-0-4-5" />
    <inkscape:perspective
       id="perspective3830-5-9-5-4"
       inkscape:persp3d-origin="-56.75492 : -84.858847 : 1"
       inkscape:vp_z="-15.572676 : -201.31703 : 1"
       inkscape:vp_y="1803.7187 : 7.0882047 : 0"
       inkscape:vp_x="-16.489242 : 31.919418 : 1"
       sodipodi:type="inkscape:persp3d" />
    <inkscape:perspective
       sodipodi:type="inkscape:persp3d"
       inkscape:vp_x="-16.489242 : 31.919418 : 1"
       inkscape:vp_y="1803.7187 : 7.0882047 : 0"
       inkscape:vp_z="-15.572676 : -201.31703 : 1"
       inkscape:persp3d-origin="-56.75492 : -84.858847 : 1"
       id="perspective3830-9-0-3-2-7" />
    <inkscape:perspective
       id="perspective3830-32-6-5-6"
       inkscape:persp3d-origin="-56.75492 : -84.858847 : 1"
       inkscape:vp_z="-15.572676 : -201.31703 : 1"
       inkscape:vp_y="1803.7187 : 7.0882047 : 0"
       inkscape:vp_x="-16.489242 : 31.919418 : 1"
       sodipodi:type="inkscape:persp3d" />
    <inkscape:perspective
       sodipodi:type="inkscape:persp3d"
       inkscape:vp_x="-16.489242 : 31.919418 : 1"
       inkscape:vp_y="1803.7187 : 7.0882047 : 0"
       inkscape:vp_z="-15.572676 : -201.31703 : 1"
       inkscape:persp3d-origin="-56.75492 : -84.858847 : 1"
       id="perspective3830-9-06-0-47-5" />
  </defs>
  <sodipodi:namedview
     id="base"
     pagecolor="#ffffff"
     bordercolor="#666666"
     borderopacity="1.0"
     inkscape:pageopacity="0.0"
     inkscape:pageshadow="2"
     inkscape:zoom="9.0534916"
     inkscape:cx="6.7941153"
     inkscape:cy="28.355736"
     inkscape:document-units="px"
     inkscape:current-layer="g1096"
     showgrid="false"
     units="px"
     fit-margin-top="0"
     fit-margin-left="0"
     fit-margin-right="0"
     fit-margin-bottom="0"
     inkscape:showpageshadow="false"
     showborder="false"
     inkscape:window-width="1920"
     inkscape:window-height="1023"
     inkscape:window-x="0"
     inkscape:window-y="0"
     inkscape:window-maximized="1" />
  <metadata
     id="metadata5">
    <rdf:RDF>
      <cc:Work
         rdf:about="">
        <dc:format>image/svg+xml</dc:format>
        <dc:type
           rdf:resource="http://purl.org/dc/dcmitype/StillImage" />
        <dc:title></dc:title>
      </cc:Work>
    </rdf:RDF>
  </metadata>
  <g
     inkscape:label="Camada 1"
     inkscape:groupmode="layer"
     id="layer1"
     transform="translate(-97.060955,-140.89675)">
    <g
       id="g1096"
       transform="matrix(0.86006476,0,0,0.86006476,17.088732,23.071175)">
      <g
         id="g1191">
        <g
           transform="matrix(0.53606313,-0.4861542,0.4861542,0.53606313,18.661524,148.42399)"
           id="g2809"
           style="fill:#241f1c">
          <rect
             transform="rotate(42.204801)"
             id="rect2348"
             ry="1.1902661"
             rx="1.1902661"
             y="-15.366209"
             x="102.701"
             height="23.805323"
             width="23.805323"
             style="opacity:0.2;fill:#241f1c;stroke-width:0.42509505" />
          <rect
             id="rect2350"
             transform="matrix(0.67178266,-0.74074831,-0.74074831,-0.67178266,0,0)"
             ry="1.1902661"
             rx="1.1902661"
             y="-126.50632"
             x="-8.01402"
             height="23.805323"
             width="23.380228"
             style="fill:#241f1c;stroke-width:0.42509505" />
          <path
             id="path2352"
             d="m 82.685918,61.703809 -0.285572,0.314889 17.633754,15.992003 0.28557,-0.314888 z"
             style="opacity:0.2;fill:#241f1c;stroke-width:0.42509505"
             inkscape:connector-curvature="0" />
          <path
             id="path2354"
             d="m 87.565858,58.095199 c -0.488455,-0.442978 -1.238904,-0.406218 -1.681539,0.08186 l -3.198401,3.526751 17.633752,15.992004 3.1984,-3.526751 c 0.44264,-0.488077 0.40599,-1.238652 -0.0821,-1.681288 z"
             style="fill:#ffcc00;stroke-width:0.42509505"
             inkscape:connector-curvature="0" />
          <path
             id="path2356"
             d="m 82.920454,66.507489 -0.856715,0.944665 12.595538,11.42286 0.856715,-0.944666 z m -1.999001,2.204219 -0.856714,0.944665 10.07643,9.138288 0.856715,-0.944666 z m -1.999,2.204219 -0.856715,0.944665 11.335985,10.280574 0.856714,-0.944665 z m -1.999001,2.204219 -0.856714,0.944665 8.816876,7.996002 0.856715,-0.944665 z"
             style="opacity:0.89299999;fill:#ffcc00;stroke-width:0.42509505"
             inkscape:connector-curvature="0" />
          <path
             id="path2358"
             d="m 87.565858,58.095199 c -0.488455,-0.442978 -1.239132,-0.405966 -1.681768,0.08211 l -0.285571,0.314889 c 0.442636,-0.488077 1.193313,-0.52509 1.681768,-0.08211 l 15.869813,14.39229 c 0.48808,0.442636 0.52481,1.193748 0.0822,1.681825 l 0.28558,-0.314888 c 0.44263,-0.488077 0.4059,-1.23919 -0.0822,-1.681826 z"
             style="opacity:0.2;fill:#ffffff;stroke-width:0.42509505"
             inkscape:connector-curvature="0" />
        </g>
        <circle
           r="5.0942965"
           cy="150.33923"
           cx="107.39803"
           id="circle901"
           style="opacity:1;fill:#241f1c;stroke-width:0.36378881" />
        <circle
           style="opacity:1;fill:#ffcc00;stroke-width:0.32560864"
           id="path1456"
           cx="107.39803"
           cy="150.33923"
           r="4.5596428" />
        <path
           style="fill:#241f1c;fill-opacity:1;stroke-width:0.01299856"
           d="m 107.42515,153.49705 c 0.0337,-0.10404 0.18164,-0.65211 0.17727,-0.65649 -0.004,-0.002 -0.23005,0.0937 -0.50425,0.21501 -0.27419,0.12136 -0.50063,0.21861 -0.50319,0.21605 -0.005,-0.005 0.45111,-0.4459 0.52547,-0.50832 0.0232,-0.0195 0.0423,-0.0396 0.0422,-0.0446 -1e-5,-0.007 -0.53412,0.0523 -0.73308,0.0821 l -0.0549,0.009 -0.0539,-0.19215 c -0.0296,-0.10574 -0.15384,-0.54827 -0.27598,-0.98352 -0.12215,-0.43525 -0.22041,-0.79604 -0.21833,-0.80176 0.002,-0.006 0.15505,0.0596 0.33995,0.14535 0.18491,0.0856 0.33823,0.15375 0.34073,0.15125 0.002,-0.002 -0.14056,-0.1727 -0.31791,-0.37822 l -0.32244,-0.37371 0.0961,-0.47061 c 0.0984,-0.48172 0.30503,-1.4962 0.41353,-2.03043 0.0334,-0.16444 0.0645,-0.30285 0.0692,-0.30762 0.005,-0.005 0.13716,-0.0844 0.29444,-0.17701 0.15729,-0.0927 0.51971,-0.30661 0.80539,-0.4756 0.40788,-0.24128 0.52262,-0.30376 0.53431,-0.29095 0.009,0.009 0.12503,0.18595 0.25964,0.39328 0.1346,0.20733 0.304,0.46761 0.37643,0.57844 0.0725,0.11074 0.1591,0.24356 0.19259,0.29502 0.0334,0.0515 0.0609,0.10074 0.0609,0.10965 -1e-5,0.009 -0.13227,0.43473 -0.29395,0.94634 -0.16168,0.5116 -0.38986,1.23418 -0.50708,1.60572 l -0.21313,0.67553 0.10769,0.11087 c 0.0593,0.0611 0.18529,0.1903 0.28004,0.28736 0.18072,0.18512 0.21598,0.22673 0.20559,0.24276 -0.004,0.005 -0.11758,0.0888 -0.25359,0.18519 -0.13598,0.0965 -0.24754,0.18031 -0.24791,0.18618 -4e-4,0.006 0.17923,0.006 0.39906,0.001 0.21984,-0.005 0.39679,-0.006 0.3932,-0.002 -0.004,0.004 -0.17905,0.0668 -0.38994,0.14047 -0.21092,0.0735 -0.388,0.13765 -0.39355,0.14228 -0.006,0.005 0.16269,0.0894 0.37382,0.18827 0.21113,0.0989 0.3818,0.18191 0.37925,0.18444 -0.005,0.004 -0.43492,-0.0663 -0.73943,-0.12099 l -0.11343,-0.0202 -0.14005,-0.1694 c -0.077,-0.0932 -0.14881,-0.17963 -0.15954,-0.19213 -0.011,-0.0126 -0.13306,-0.15812 -0.27183,-0.32359 l -0.25234,-0.30085 0.002,-0.16541 c 0.0122,-0.8569 0.21967,-2.16685 0.58731,-3.70372 0.0218,-0.0915 0.0515,-0.21517 0.0659,-0.27495 0.10172,-0.42408 -0.17018,0.40785 -0.33086,1.01209 -0.19887,0.74797 -0.32983,1.46117 -0.41147,2.24095 -0.023,0.22047 -0.0516,0.6582 -0.0516,0.79422 l -1.1e-4,0.12999 0.17137,0.20797 c 0.0943,0.1144 0.28416,0.34366 0.42201,0.50948 l 0.25065,0.30154 -0.19603,0.3354 c -0.18262,0.31243 -0.23283,0.39166 -0.21676,0.34191 z"
           id="path5839"
           inkscape:connector-curvature="0" />
        <path
           style="fill:#ffffff;fill-opacity:1;stroke-width:0.01299856"
           d="m 108.79914,153.91627 c -0.19062,-0.19533 -0.58788,-0.65292 -0.97096,-1.11849 -0.0665,-0.0807 -0.24496,-0.29721 -0.39666,-0.48095 -0.1517,-0.18376 -0.3102,-0.37677 -0.35224,-0.42895 l -0.0765,-0.0948 0.007,-0.25612 c 0.0167,-0.55156 0.0855,-1.12528 0.23087,-1.92644 0.0546,-0.30086 0.20884,-0.94312 0.30593,-1.27387 0.0809,-0.27573 0.20588,-0.66551 0.20969,-0.6541 0.002,0.007 -0.019,0.10867 -0.0473,0.22611 -0.0556,0.231 -0.13877,0.59382 -0.15751,0.68797 -0.007,0.0321 -0.0296,0.14331 -0.0517,0.24698 -0.1499,0.7046 -0.24916,1.30966 -0.32416,1.97577 -0.025,0.22236 -0.0524,0.64026 -0.0526,0.79942 l -1e-5,0.15596 0.1271,0.14952 c 0.99348,1.16811 1.76008,2.13177 1.69585,2.13177 -0.006,-2e-5 -0.0727,-0.0629 -0.1477,-0.13974 z"
           id="path5841"
           inkscape:connector-curvature="0" />
      </g>
    </g>
  </g>
</svg>
