<?xml version="1.0" encoding="UTF-8" standalone="no"?>
<!-- Created with Inkscape (http://www.inkscape.org/) -->

<svg
   xmlns:dc="http://purl.org/dc/elements/1.1/"
   xmlns:cc="http://creativecommons.org/ns#"
   xmlns:rdf="http://www.w3.org/1999/02/22-rdf-syntax-ns#"
   xmlns:svg="http://www.w3.org/2000/svg"
   xmlns="http://www.w3.org/2000/svg"
   xmlns:sodipodi="http://sodipodi.sourceforge.net/DTD/sodipodi-0.dtd"
   xmlns:inkscape="http://www.inkscape.org/namespaces/inkscape"
   width="60.628769"
   height="51.833927"
   viewBox="0 0 16.041361 13.714393"
   version="1.1"
   id="svg8"
   inkscape:version="0.92.5 (2060ec1f9f, 2020-04-08)"
   sodipodi:docname="liteupdatesnotify.svg">
  <defs
     id="defs2">
    <inkscape:perspective
       sodipodi:type="inkscape:persp3d"
       inkscape:vp_x="-16.489242 : 31.919418 : 1"
       inkscape:vp_y="1803.7188 : 7.0882044 : 0"
       inkscape:vp_z="-15.572677 : -201.31703 : 1"
       inkscape:persp3d-origin="-56.75492 : -84.858844 : 1"
       id="perspective3830" />
    <inkscape:perspective
       id="perspective3830-9"
       inkscape:persp3d-origin="-56.75492 : -84.858844 : 1"
       inkscape:vp_z="-15.572677 : -201.31703 : 1"
       inkscape:vp_y="1803.7188 : 7.0882044 : 0"
       inkscape:vp_x="-16.489242 : 31.919418 : 1"
       sodipodi:type="inkscape:persp3d" />
    <inkscape:perspective
       id="perspective3830-3"
       inkscape:persp3d-origin="-56.75492 : -84.858844 : 1"
       inkscape:vp_z="-15.572677 : -201.31703 : 1"
       inkscape:vp_y="1803.7188 : 7.0882044 : 0"
       inkscape:vp_x="-16.489242 : 31.919418 : 1"
       sodipodi:type="inkscape:persp3d" />
    <inkscape:perspective
       sodipodi:type="inkscape:persp3d"
       inkscape:vp_x="-16.489242 : 31.919418 : 1"
       inkscape:vp_y="1803.7188 : 7.0882044 : 0"
       inkscape:vp_z="-15.572677 : -201.31703 : 1"
       inkscape:persp3d-origin="-56.75492 : -84.858844 : 1"
       id="perspective3830-9-7" />
    <inkscape:perspective
       id="perspective3830-93"
       inkscape:persp3d-origin="-56.75492 : -84.858844 : 1"
       inkscape:vp_z="-15.572677 : -201.31703 : 1"
       inkscape:vp_y="1803.7188 : 7.0882044 : 0"
       inkscape:vp_x="-16.489242 : 31.919418 : 1"
       sodipodi:type="inkscape:persp3d" />
    <inkscape:perspective
       sodipodi:type="inkscape:persp3d"
       inkscape:vp_x="-16.489242 : 31.919418 : 1"
       inkscape:vp_y="1803.7188 : 7.0882044 : 0"
       inkscape:vp_z="-15.572677 : -201.31703 : 1"
       inkscape:persp3d-origin="-56.75492 : -84.858844 : 1"
       id="perspective3830-9-1" />
    <inkscape:perspective
       id="perspective3830-5"
       inkscape:persp3d-origin="-56.75492 : -84.858844 : 1"
       inkscape:vp_z="-15.572677 : -201.31703 : 1"
       inkscape:vp_y="1803.7188 : 7.0882044 : 0"
       inkscape:vp_x="-16.489242 : 31.919418 : 1"
       sodipodi:type="inkscape:persp3d" />
    <inkscape:perspective
       sodipodi:type="inkscape:persp3d"
       inkscape:vp_x="-16.489242 : 31.919418 : 1"
       inkscape:vp_y="1803.7188 : 7.0882044 : 0"
       inkscape:vp_z="-15.572677 : -201.31703 : 1"
       inkscape:persp3d-origin="-56.75492 : -84.858844 : 1"
       id="perspective3830-9-0" />
    <inkscape:perspective
       id="perspective3830-32"
       inkscape:persp3d-origin="-56.75492 : -84.858844 : 1"
       inkscape:vp_z="-15.572677 : -201.31703 : 1"
       inkscape:vp_y="1803.7188 : 7.0882044 : 0"
       inkscape:vp_x="-16.489242 : 31.919418 : 1"
       sodipodi:type="inkscape:persp3d" />
    <inkscape:perspective
       sodipodi:type="inkscape:persp3d"
       inkscape:vp_x="-16.489242 : 31.919418 : 1"
       inkscape:vp_y="1803.7188 : 7.0882044 : 0"
       inkscape:vp_z="-15.572677 : -201.31703 : 1"
       inkscape:persp3d-origin="-56.75492 : -84.858844 : 1"
       id="perspective3830-9-06" />
    <inkscape:perspective
       id="perspective3830-2"
       inkscape:persp3d-origin="-56.754918 : -84.858846 : 1"
       inkscape:vp_z="-15.572676 : -201.31704 : 1"
       inkscape:vp_y="1803.7187 : 7.0882046 : 0"
       inkscape:vp_x="-16.489241 : 31.919419 : 1"
       sodipodi:type="inkscape:persp3d" />
    <inkscape:perspective
       sodipodi:type="inkscape:persp3d"
       inkscape:vp_x="-16.489241 : 31.919419 : 1"
       inkscape:vp_y="1803.7187 : 7.0882046 : 0"
       inkscape:vp_z="-15.572676 : -201.31704 : 1"
       inkscape:persp3d-origin="-56.754918 : -84.858846 : 1"
       id="perspective3830-9-9" />
    <inkscape:perspective
       sodipodi:type="inkscape:persp3d"
       inkscape:vp_x="-16.489241 : 31.919419 : 1"
       inkscape:vp_y="1803.7187 : 7.0882046 : 0"
       inkscape:vp_z="-15.572676 : -201.31704 : 1"
       inkscape:persp3d-origin="-56.754918 : -84.858846 : 1"
       id="perspective3830-3-1" />
    <inkscape:perspective
       id="perspective3830-9-7-2"
       inkscape:persp3d-origin="-56.754918 : -84.858846 : 1"
       inkscape:vp_z="-15.572676 : -201.31704 : 1"
       inkscape:vp_y="1803.7187 : 7.0882046 : 0"
       inkscape:vp_x="-16.489241 : 31.919419 : 1"
       sodipodi:type="inkscape:persp3d" />
    <inkscape:perspective
       sodipodi:type="inkscape:persp3d"
       inkscape:vp_x="-16.489241 : 31.919419 : 1"
       inkscape:vp_y="1803.7187 : 7.0882046 : 0"
       inkscape:vp_z="-15.572676 : -201.31704 : 1"
       inkscape:persp3d-origin="-56.754918 : -84.858846 : 1"
       id="perspective3830-93-7" />
    <inkscape:perspective
       id="perspective3830-9-1-0"
       inkscape:persp3d-origin="-56.754918 : -84.858846 : 1"
       inkscape:vp_z="-15.572676 : -201.31704 : 1"
       inkscape:vp_y="1803.7187 : 7.0882046 : 0"
       inkscape:vp_x="-16.489241 : 31.919419 : 1"
       sodipodi:type="inkscape:persp3d" />
    <inkscape:perspective
       sodipodi:type="inkscape:persp3d"
       inkscape:vp_x="-16.489241 : 31.919419 : 1"
       inkscape:vp_y="1803.7187 : 7.0882046 : 0"
       inkscape:vp_z="-15.572676 : -201.31704 : 1"
       inkscape:persp3d-origin="-56.754918 : -84.858846 : 1"
       id="perspective3830-5-9" />
    <inkscape:perspective
       id="perspective3830-9-0-3"
       inkscape:persp3d-origin="-56.754918 : -84.858846 : 1"
       inkscape:vp_z="-15.572676 : -201.31704 : 1"
       inkscape:vp_y="1803.7187 : 7.0882046 : 0"
       inkscape:vp_x="-16.489241 : 31.919419 : 1"
       sodipodi:type="inkscape:persp3d" />
    <inkscape:perspective
       sodipodi:type="inkscape:persp3d"
       inkscape:vp_x="-16.489241 : 31.919419 : 1"
       inkscape:vp_y="1803.7187 : 7.0882046 : 0"
       inkscape:vp_z="-15.572676 : -201.31704 : 1"
       inkscape:persp3d-origin="-56.754918 : -84.858846 : 1"
       id="perspective3830-32-6" />
    <inkscape:perspective
       id="perspective3830-9-06-0"
       inkscape:persp3d-origin="-56.754918 : -84.858846 : 1"
       inkscape:vp_z="-15.572676 : -201.31704 : 1"
       inkscape:vp_y="1803.7187 : 7.0882046 : 0"
       inkscape:vp_x="-16.489241 : 31.919419 : 1"
       sodipodi:type="inkscape:persp3d" />
    <inkscape:perspective
       id="perspective3830-7"
       inkscape:persp3d-origin="-56.75492 : -84.858842 : 1"
       inkscape:vp_z="-15.572677 : -201.31702 : 1"
       inkscape:vp_y="1803.7188 : 7.0882042 : 0"
       inkscape:vp_x="-16.489242 : 31.919417 : 1"
       sodipodi:type="inkscape:persp3d" />
    <inkscape:perspective
       sodipodi:type="inkscape:persp3d"
       inkscape:vp_x="-16.489242 : 31.919417 : 1"
       inkscape:vp_y="1803.7188 : 7.0882042 : 0"
       inkscape:vp_z="-15.572677 : -201.31702 : 1"
       inkscape:persp3d-origin="-56.75492 : -84.858842 : 1"
       id="perspective3830-9-92" />
    <inkscape:perspective
       sodipodi:type="inkscape:persp3d"
       inkscape:vp_x="-16.489242 : 31.919417 : 1"
       inkscape:vp_y="1803.7188 : 7.0882042 : 0"
       inkscape:vp_z="-15.572677 : -201.31702 : 1"
       inkscape:persp3d-origin="-56.75492 : -84.858842 : 1"
       id="perspective3830-3-0" />
    <inkscape:perspective
       id="perspective3830-9-7-23"
       inkscape:persp3d-origin="-56.75492 : -84.858842 : 1"
       inkscape:vp_z="-15.572677 : -201.31702 : 1"
       inkscape:vp_y="1803.7188 : 7.0882042 : 0"
       inkscape:vp_x="-16.489242 : 31.919417 : 1"
       sodipodi:type="inkscape:persp3d" />
    <inkscape:perspective
       sodipodi:type="inkscape:persp3d"
       inkscape:vp_x="-16.489242 : 31.919417 : 1"
       inkscape:vp_y="1803.7188 : 7.0882042 : 0"
       inkscape:vp_z="-15.572677 : -201.31702 : 1"
       inkscape:persp3d-origin="-56.75492 : -84.858842 : 1"
       id="perspective3830-93-75" />
    <inkscape:perspective
       id="perspective3830-9-1-9"
       inkscape:persp3d-origin="-56.75492 : -84.858842 : 1"
       inkscape:vp_z="-15.572677 : -201.31702 : 1"
       inkscape:vp_y="1803.7188 : 7.0882042 : 0"
       inkscape:vp_x="-16.489242 : 31.919417 : 1"
       sodipodi:type="inkscape:persp3d" />
    <inkscape:perspective
       sodipodi:type="inkscape:persp3d"
       inkscape:vp_x="-16.489242 : 31.919417 : 1"
       inkscape:vp_y="1803.7188 : 7.0882042 : 0"
       inkscape:vp_z="-15.572677 : -201.31702 : 1"
       inkscape:persp3d-origin="-56.75492 : -84.858842 : 1"
       id="perspective3830-5-2" />
    <inkscape:perspective
       id="perspective3830-9-0-2"
       inkscape:persp3d-origin="-56.75492 : -84.858842 : 1"
       inkscape:vp_z="-15.572677 : -201.31702 : 1"
       inkscape:vp_y="1803.7188 : 7.0882042 : 0"
       inkscape:vp_x="-16.489242 : 31.919417 : 1"
       sodipodi:type="inkscape:persp3d" />
    <inkscape:perspective
       sodipodi:type="inkscape:persp3d"
       inkscape:vp_x="-16.489242 : 31.919417 : 1"
       inkscape:vp_y="1803.7188 : 7.0882042 : 0"
       inkscape:vp_z="-15.572677 : -201.31702 : 1"
       inkscape:persp3d-origin="-56.75492 : -84.858842 : 1"
       id="perspective3830-32-8" />
    <inkscape:perspective
       id="perspective3830-9-06-9"
       inkscape:persp3d-origin="-56.75492 : -84.858842 : 1"
       inkscape:vp_z="-15.572677 : -201.31702 : 1"
       inkscape:vp_y="1803.7188 : 7.0882042 : 0"
       inkscape:vp_x="-16.489242 : 31.919417 : 1"
       sodipodi:type="inkscape:persp3d" />
    <inkscape:perspective
       sodipodi:type="inkscape:persp3d"
       inkscape:vp_x="-16.489241 : 31.919418 : 1"
       inkscape:vp_y="1803.7187 : 7.0882044 : 0"
       inkscape:vp_z="-15.572676 : -201.31703 : 1"
       inkscape:persp3d-origin="-56.754918 : -84.858844 : 1"
       id="perspective3830-2-7" />
    <inkscape:perspective
       id="perspective3830-9-9-3"
       inkscape:persp3d-origin="-56.754918 : -84.858844 : 1"
       inkscape:vp_z="-15.572676 : -201.31703 : 1"
       inkscape:vp_y="1803.7187 : 7.0882044 : 0"
       inkscape:vp_x="-16.489241 : 31.919418 : 1"
       sodipodi:type="inkscape:persp3d" />
    <inkscape:perspective
       id="perspective3830-3-1-6"
       inkscape:persp3d-origin="-56.754918 : -84.858844 : 1"
       inkscape:vp_z="-15.572676 : -201.31703 : 1"
       inkscape:vp_y="1803.7187 : 7.0882044 : 0"
       inkscape:vp_x="-16.489241 : 31.919418 : 1"
       sodipodi:type="inkscape:persp3d" />
    <inkscape:perspective
       sodipodi:type="inkscape:persp3d"
       inkscape:vp_x="-16.489241 : 31.919418 : 1"
       inkscape:vp_y="1803.7187 : 7.0882044 : 0"
       inkscape:vp_z="-15.572676 : -201.31703 : 1"
       inkscape:persp3d-origin="-56.754918 : -84.858844 : 1"
       id="perspective3830-9-7-2-1" />
    <inkscape:perspective
       id="perspective3830-93-7-2"
       inkscape:persp3d-origin="-56.754918 : -84.858844 : 1"
       inkscape:vp_z="-15.572676 : -201.31703 : 1"
       inkscape:vp_y="1803.7187 : 7.0882044 : 0"
       inkscape:vp_x="-16.489241 : 31.919418 : 1"
       sodipodi:type="inkscape:persp3d" />
    <inkscape:perspective
       sodipodi:type="inkscape:persp3d"
       inkscape:vp_x="-16.489241 : 31.919418 : 1"
       inkscape:vp_y="1803.7187 : 7.0882044 : 0"
       inkscape:vp_z="-15.572676 : -201.31703 : 1"
       inkscape:persp3d-origin="-56.754918 : -84.858844 : 1"
       id="perspective3830-9-1-0-9" />
    <inkscape:perspective
       id="perspective3830-5-9-3"
       inkscape:persp3d-origin="-56.754918 : -84.858844 : 1"
       inkscape:vp_z="-15.572676 : -201.31703 : 1"
       inkscape:vp_y="1803.7187 : 7.0882044 : 0"
       inkscape:vp_x="-16.489241 : 31.919418 : 1"
       sodipodi:type="inkscape:persp3d" />
    <inkscape:perspective
       sodipodi:type="inkscape:persp3d"
       inkscape:vp_x="-16.489241 : 31.919418 : 1"
       inkscape:vp_y="1803.7187 : 7.0882044 : 0"
       inkscape:vp_z="-15.572676 : -201.31703 : 1"
       inkscape:persp3d-origin="-56.754918 : -84.858844 : 1"
       id="perspective3830-9-0-3-1" />
    <inkscape:perspective
       id="perspective3830-32-6-9"
       inkscape:persp3d-origin="-56.754918 : -84.858844 : 1"
       inkscape:vp_z="-15.572676 : -201.31703 : 1"
       inkscape:vp_y="1803.7187 : 7.0882044 : 0"
       inkscape:vp_x="-16.489241 : 31.919418 : 1"
       sodipodi:type="inkscape:persp3d" />
    <inkscape:perspective
       sodipodi:type="inkscape:persp3d"
       inkscape:vp_x="-16.489241 : 31.919418 : 1"
       inkscape:vp_y="1803.7187 : 7.0882044 : 0"
       inkscape:vp_z="-15.572676 : -201.31703 : 1"
       inkscape:persp3d-origin="-56.754918 : -84.858844 : 1"
       id="perspective3830-9-06-0-4" />
    <inkscape:perspective
       id="perspective3830-1"
       inkscape:persp3d-origin="-56.754921 : -84.858843 : 1"
       inkscape:vp_z="-15.572677 : -201.31702 : 1"
       inkscape:vp_y="1803.7188 : 7.0882043 : 0"
       inkscape:vp_x="-16.489242 : 31.919417 : 1"
       sodipodi:type="inkscape:persp3d" />
    <inkscape:perspective
       sodipodi:type="inkscape:persp3d"
       inkscape:vp_x="-16.489242 : 31.919417 : 1"
       inkscape:vp_y="1803.7188 : 7.0882043 : 0"
       inkscape:vp_z="-15.572677 : -201.31702 : 1"
       inkscape:persp3d-origin="-56.754921 : -84.858843 : 1"
       id="perspective3830-9-063" />
    <inkscape:perspective
       sodipodi:type="inkscape:persp3d"
       inkscape:vp_x="-16.489242 : 31.919417 : 1"
       inkscape:vp_y="1803.7188 : 7.0882043 : 0"
       inkscape:vp_z="-15.572677 : -201.31702 : 1"
       inkscape:persp3d-origin="-56.754921 : -84.858843 : 1"
       id="perspective3830-3-2" />
    <inkscape:perspective
       id="perspective3830-9-7-0"
       inkscape:persp3d-origin="-56.754921 : -84.858843 : 1"
       inkscape:vp_z="-15.572677 : -201.31702 : 1"
       inkscape:vp_y="1803.7188 : 7.0882043 : 0"
       inkscape:vp_x="-16.489242 : 31.919417 : 1"
       sodipodi:type="inkscape:persp3d" />
    <inkscape:perspective
       sodipodi:type="inkscape:persp3d"
       inkscape:vp_x="-16.489242 : 31.919417 : 1"
       inkscape:vp_y="1803.7188 : 7.0882043 : 0"
       inkscape:vp_z="-15.572677 : -201.31702 : 1"
       inkscape:persp3d-origin="-56.754921 : -84.858843 : 1"
       id="perspective3830-93-6" />
    <inkscape:perspective
       id="perspective3830-9-1-1"
       inkscape:persp3d-origin="-56.754921 : -84.858843 : 1"
       inkscape:vp_z="-15.572677 : -201.31702 : 1"
       inkscape:vp_y="1803.7188 : 7.0882043 : 0"
       inkscape:vp_x="-16.489242 : 31.919417 : 1"
       sodipodi:type="inkscape:persp3d" />
    <inkscape:perspective
       sodipodi:type="inkscape:persp3d"
       inkscape:vp_x="-16.489242 : 31.919417 : 1"
       inkscape:vp_y="1803.7188 : 7.0882043 : 0"
       inkscape:vp_z="-15.572677 : -201.31702 : 1"
       inkscape:persp3d-origin="-56.754921 : -84.858843 : 1"
       id="perspective3830-5-5" />
    <inkscape:perspective
       id="perspective3830-9-0-5"
       inkscape:persp3d-origin="-56.754921 : -84.858843 : 1"
       inkscape:vp_z="-15.572677 : -201.31702 : 1"
       inkscape:vp_y="1803.7188 : 7.0882043 : 0"
       inkscape:vp_x="-16.489242 : 31.919417 : 1"
       sodipodi:type="inkscape:persp3d" />
    <inkscape:perspective
       sodipodi:type="inkscape:persp3d"
       inkscape:vp_x="-16.489242 : 31.919417 : 1"
       inkscape:vp_y="1803.7188 : 7.0882043 : 0"
       inkscape:vp_z="-15.572677 : -201.31702 : 1"
       inkscape:persp3d-origin="-56.754921 : -84.858843 : 1"
       id="perspective3830-32-4" />
    <inkscape:perspective
       id="perspective3830-9-06-7"
       inkscape:persp3d-origin="-56.754921 : -84.858843 : 1"
       inkscape:vp_z="-15.572677 : -201.31702 : 1"
       inkscape:vp_y="1803.7188 : 7.0882043 : 0"
       inkscape:vp_x="-16.489242 : 31.919417 : 1"
       sodipodi:type="inkscape:persp3d" />
    <inkscape:perspective
       sodipodi:type="inkscape:persp3d"
       inkscape:vp_x="-16.489241 : 31.919418 : 1"
       inkscape:vp_y="1803.7187 : 7.0882045 : 0"
       inkscape:vp_z="-15.572676 : -201.31703 : 1"
       inkscape:persp3d-origin="-56.754919 : -84.858845 : 1"
       id="perspective3830-2-6" />
    <inkscape:perspective
       id="perspective3830-9-9-5"
       inkscape:persp3d-origin="-56.754919 : -84.858845 : 1"
       inkscape:vp_z="-15.572676 : -201.31703 : 1"
       inkscape:vp_y="1803.7187 : 7.0882045 : 0"
       inkscape:vp_x="-16.489241 : 31.919418 : 1"
       sodipodi:type="inkscape:persp3d" />
    <inkscape:perspective
       id="perspective3830-3-1-69"
       inkscape:persp3d-origin="-56.754919 : -84.858845 : 1"
       inkscape:vp_z="-15.572676 : -201.31703 : 1"
       inkscape:vp_y="1803.7187 : 7.0882045 : 0"
       inkscape:vp_x="-16.489241 : 31.919418 : 1"
       sodipodi:type="inkscape:persp3d" />
    <inkscape:perspective
       sodipodi:type="inkscape:persp3d"
       inkscape:vp_x="-16.489241 : 31.919418 : 1"
       inkscape:vp_y="1803.7187 : 7.0882045 : 0"
       inkscape:vp_z="-15.572676 : -201.31703 : 1"
       inkscape:persp3d-origin="-56.754919 : -84.858845 : 1"
       id="perspective3830-9-7-2-3" />
    <inkscape:perspective
       id="perspective3830-93-7-7"
       inkscape:persp3d-origin="-56.754919 : -84.858845 : 1"
       inkscape:vp_z="-15.572676 : -201.31703 : 1"
       inkscape:vp_y="1803.7187 : 7.0882045 : 0"
       inkscape:vp_x="-16.489241 : 31.919418 : 1"
       sodipodi:type="inkscape:persp3d" />
    <inkscape:perspective
       sodipodi:type="inkscape:persp3d"
       inkscape:vp_x="-16.489241 : 31.919418 : 1"
       inkscape:vp_y="1803.7187 : 7.0882045 : 0"
       inkscape:vp_z="-15.572676 : -201.31703 : 1"
       inkscape:persp3d-origin="-56.754919 : -84.858845 : 1"
       id="perspective3830-9-1-0-4" />
    <inkscape:perspective
       id="perspective3830-5-9-5"
       inkscape:persp3d-origin="-56.754919 : -84.858845 : 1"
       inkscape:vp_z="-15.572676 : -201.31703 : 1"
       inkscape:vp_y="1803.7187 : 7.0882045 : 0"
       inkscape:vp_x="-16.489241 : 31.919418 : 1"
       sodipodi:type="inkscape:persp3d" />
    <inkscape:perspective
       sodipodi:type="inkscape:persp3d"
       inkscape:vp_x="-16.489241 : 31.919418 : 1"
       inkscape:vp_y="1803.7187 : 7.0882045 : 0"
       inkscape:vp_z="-15.572676 : -201.31703 : 1"
       inkscape:persp3d-origin="-56.754919 : -84.858845 : 1"
       id="perspective3830-9-0-3-2" />
    <inkscape:perspective
       id="perspective3830-32-6-5"
       inkscape:persp3d-origin="-56.754919 : -84.858845 : 1"
       inkscape:vp_z="-15.572676 : -201.31703 : 1"
       inkscape:vp_y="1803.7187 : 7.0882045 : 0"
       inkscape:vp_x="-16.489241 : 31.919418 : 1"
       sodipodi:type="inkscape:persp3d" />
    <inkscape:perspective
       sodipodi:type="inkscape:persp3d"
       inkscape:vp_x="-16.489241 : 31.919418 : 1"
       inkscape:vp_y="1803.7187 : 7.0882045 : 0"
       inkscape:vp_z="-15.572676 : -201.31703 : 1"
       inkscape:persp3d-origin="-56.754919 : -84.858845 : 1"
       id="perspective3830-9-06-0-47" />
  </defs>
  <sodipodi:namedview
     id="base"
     pagecolor="#ffffff"
     bordercolor="#666666"
     borderopacity="1.0"
     inkscape:pageopacity="0.0"
     inkscape:pageshadow="2"
     inkscape:zoom="4.5267458"
     inkscape:cx="47.722557"
     inkscape:cy="38.028192"
     inkscape:document-units="px"
     inkscape:current-layer="layer1"
     showgrid="false"
     units="px"
     fit-margin-top="0"
     fit-margin-left="0"
     fit-margin-right="0"
     fit-margin-bottom="0"
     inkscape:showpageshadow="false"
     showborder="false"
     inkscape:window-width="1920"
     inkscape:window-height="1023"
     inkscape:window-x="0"
     inkscape:window-y="0"
     inkscape:window-maximized="1"
     inkscape:snap-others="false" />
  <metadata
     id="metadata5">
    <rdf:RDF>
      <cc:Work
         rdf:about="">
        <dc:format>image/svg+xml</dc:format>
        <dc:type
           rdf:resource="http://purl.org/dc/dcmitype/StillImage" />
        <dc:title />
      </cc:Work>
    </rdf:RDF>
  </metadata>
  <g
     inkscape:label="Camada 1"
     inkscape:groupmode="layer"
     id="layer1"
     transform="translate(-97.198504,-141.75311)">
    <path
       inkscape:connector-curvature="0"
       style="opacity:0.2;stroke-width:0.26458332"
       d="m 112.01519,151.67504 v 0.52916 c 0,0.45614 -0.36703,0.90857 -0.82268,0.92603 h -6.84998 l -1.85205,2.11664 -1.85206,-2.11664 h -2.616702 c -0.456136,0 -0.822843,-0.46989 -0.822843,-0.92603 v -0.52916 c 0,0.45614 0.366707,0.92603 0.822843,0.92603 h 2.616702 l 1.85206,2.11664 1.85205,-2.11664 h 6.84998 c 0.4556,-0.0175 0.82284,-0.46989 0.82284,-0.92603 z"
       id="path910" />
    <path
       inkscape:connector-curvature="0"
       style="fill:#241f1c;stroke-width:0.26458332"
       d="m 111.19182,141.7533 c 0.45603,0 0.82316,0.47 0.82316,0.92603 v 9.2603 c 0,0.45613 -0.36745,0.90856 -0.82316,0.92603 h -6.84944 l -1.85206,2.11663 -1.85206,-2.11663 h -2.616383 c -0.456136,0 -0.823373,-0.4699 -0.823373,-0.92603 v -9.2603 c -1.58e-4,-0.45603 0.367078,-0.92603 0.823214,-0.92603 z"
       id="path912" />
    <path
       id="path914"
       d="m 101.43184,145.19276 v -0.52916 h 6.34991 v 0.52916 z"
       inkscape:connector-curvature="0"
       style="fill:#ffcc00;stroke-width:0.52915961" />
    <path
       id="path916"
       d="m 101.43184,146.78023 v -0.52916 h 6.34991 v 0.52916 z"
       inkscape:connector-curvature="0"
       style="fill:#ffcc00;stroke-width:0.52915961" />
    <path
       id="path918"
       d="m 101.43184,148.36771 v -0.52916 h 6.34991 v 0.52916 z"
       inkscape:connector-curvature="0"
       style="fill:#ffcc00;stroke-width:0.52915961" />
    <path
       id="path920"
       d="m 101.43184,149.95519 v -0.52916 h 4.23328 v 0.52916 z"
       inkscape:connector-curvature="0"
       style="fill:#ffcc00;stroke-width:0.52915961" />
    <path
       style="fill:#ffcc00;stroke-width:0.52915961"
       id="path924"
       d="m 101.43184,144.92827 v -0.52916 h 6.34991 v 0.52916 z"
       inkscape:connector-curvature="0" />
    <path
       style="fill:#ffcc00;stroke-width:0.52915961"
       id="path926"
       d="m 101.43184,146.51574 v -0.52916 h 6.34991 v 0.52916 z"
       inkscape:connector-curvature="0" />
    <path
       style="fill:#ffcc00;stroke-width:0.52915961"
       id="path928"
       d="m 101.43184,148.10322 v -0.52916 h 6.34991 v 0.52916 z"
       inkscape:connector-curvature="0" />
    <path
       style="fill:#ffcc00;stroke-width:0.5884763"
       id="path930"
       d="m 101.43184,149.6907 v -0.52916 h 5.23554 v 0.52916 z"
       inkscape:connector-curvature="0" />
    <path
       inkscape:connector-curvature="0"
       style="opacity:0.1;fill:#ffffff;stroke-width:0.26458332"
       d="m 98.021193,141.75311 c -0.456135,0 -0.822689,0.47001 -0.822689,0.92604 v 0.2651 c 0,-0.45603 0.366554,-0.92604 0.822689,-0.92604 h 13.170777 5.3e-4 c 0.45602,0 0.82268,0.47001 0.82268,0.92604 v -0.2651 c 0,-0.45603 -0.36666,-0.92604 -0.82269,-0.92604 h -5.3e-4 z"
       id="path936" />
    <circle
       r="4.1768537"
       cy="151.29065"
       cx="109.06301"
       id="circle901"
       style="opacity:1;fill:#241f1c;stroke-width:0.2982733" />
    <circle
       style="opacity:1;fill:#ffcc00;stroke-width:0.26696908"
       id="path1456"
       cx="109.06301"
       cy="151.29065"
       r="3.7384868" />
    <path
       inkscape:connector-curvature="0"
       style="fill:#241f1c;stroke-width:0.26458332"
       d="m 108.99333,149.08308 a 2.3812499,2.3812499 0 0 0 -2.38125,2.38125 2.3812499,2.3812499 0 0 0 2.38125,2.38125 2.3812499,2.3812499 0 0 0 2.24224,-1.5875 h -0.8692 a 1.5874999,1.5874999 0 0 1 -1.37304,0.79375 1.5874999,1.5874999 0 0 1 -1.5875,-1.5875 1.5874999,1.5874999 0 0 1 1.5875,-1.5875 1.5874999,1.5874999 0 0 1 1.24644,0.60565 l -0.71727,0.71727 h 0.92604 0.10955 0.80047 0.016 v -0.92604 -0.92604 l -0.57154,0.57154 a 2.3812499,2.3812499 0 0 0 -1.80971,-0.83613 z"
       id="path961" />
  </g>
</svg>
